%YAML 1.1
%TAG !u! tag:unity3d.com,2011:
--- !u!114 &11400000
MonoBehaviour:
  m_ObjectHideFlags: 0
  m_CorrespondingSourceObject: {fileID: 0}
  m_PrefabInstance: {fileID: 0}
  m_PrefabAsset: {fileID: 0}
  m_GameObject: {fileID: 0}
  m_Enabled: 1
  m_EditorHideFlags: 0
  m_Script: {fileID: 11500000, guid: 4fa3de6f7fc0d0e40891d4cd74a53ae2, type: 3}
  m_Name: armor
  m_EditorClassIdentifier: 
  itemName: "\uC800\uB141 \uAC11\uC8FC"
  itemImage: {fileID: 21300000, guid: f126324fd2486a641842ea5a8244c2d1, type: 3}
